{
    "errno": 0,
    "errmsg": "",
    "data": {
        "count": 14256,
        "totalPages": 1426,
        "pageSize": 10,
        "currentPage": 1,
        "data": [
            {
                "id": 23161,
                "user_id": 5602,
                "goods_id": 1086015,
                "goods_sn": "1086015",
                "product_id": 103,
                "goods_name": "求打赏",
                "goods_aka": "11",
                "goods_weight": 1,
                "add_price": 249,
                "retail_price": 249,
                "number": 1,
                "goods_specifition_name_value": "黑色",
                "goods_specifition_ids": "47",
                "checked": 1,
                "list_pic_url": "http://yanxuan.nosdn.127.net/d5c2ecfe0fb00cdd8b829975bab21a31.png",
                "freight_template_id": 15,
                "is_on_sale": 1,
                "add_time": "2023-11-09 23:32:36",
                "is_fast": 1,
                "is_delete": 1,
                "nickname": "微信用户"
            },
            {
                "id": 23160,
                "user_id": 5602,
                "goods_id": 1086015,
                "goods_sn": "1086015",
                "product_id": 103,
                "goods_name": "求打赏",
                "goods_aka": "11",
                "goods_weight": 1,
                "add_price": 249,
                "retail_price": 249,
                "number": 1,
                "goods_specifition_name_value": "黑色",
                "goods_specifition_ids": "47",
                "checked": 0,
                "list_pic_url": "http://yanxuan.nosdn.127.net/d5c2ecfe0fb00cdd8b829975bab21a31.png",
                "freight_template_id": 15,
                "is_on_sale": 1,
                "add_time": "2023-11-09 23:32:24",
                "is_fast": 0,
                "is_delete": 0,
                "nickname": "微信用户"
            },
            {
                "id": 23159,
                "user_id": 5596,
                "goods_id": 1064021,
                "goods_sn": "1064021",
                "product_id": 78,
                "goods_name": "清欢日式可调节台灯",
                "goods_aka": "清欢日式可调节台灯",
                "goods_weight": 1,
                "add_price": 199,
                "retail_price": 199,
                "number": 1,
                "goods_specifition_name_value": "白色",
                "goods_specifition_ids": "55",
                "checked": 1,
                "list_pic_url": "http://yanxuan.nosdn.127.net/c83a3881704094ddd3970099ca77d115.png",
                "freight_template_id": 17,
                "is_on_sale": 1,
                "add_time": "2023-11-09 22:52:39",
                "is_fast": 0,
                "is_delete": 0,
                "nickname": "微信用户"
            },
            {
                "id": 23158,
                "user_id": 5596,
                "goods_id": 1009024,
                "goods_sn": "1234",
                "product_id": 251,
                "goods_name": "日式和风懒人沙发",
                "goods_aka": "懒人椅",
                "goods_weight": 2,
                "add_price": 0.2,
                "retail_price": 0.2,
                "number": 3,
                "goods_specifition_name_value": "蓝色",
                "goods_specifition_ids": "77",
                "checked": 1,
                "list_pic_url": "https://www.qile.club:8688/static/images/goods.jpg",
                "freight_template_id": 17,
                "is_on_sale": 1,
                "add_time": "2023-11-09 22:52:35",
                "is_fast": 0,
                "is_delete": 0,
                "nickname": "微信用户"
            },
            {
                "id": 23157,
                "user_id": 5596,
                "goods_id": 1086015,
                "goods_sn": "1086015",
                "product_id": 103,
                "goods_name": "求打赏",
                "goods_aka": "11",
                "goods_weight": 1,
                "add_price": 249,
                "retail_price": 249,
                "number": 1,
                "goods_specifition_name_value": "黑色",
                "goods_specifition_ids": "47",
                "checked": 1,
                "list_pic_url": "http://yanxuan.nosdn.127.net/d5c2ecfe0fb00cdd8b829975bab21a31.png",
                "freight_template_id": 15,
                "is_on_sale": 1,
                "add_time": "2023-11-09 22:52:24",
                "is_fast": 0,
                "is_delete": 0,
                "nickname": "微信用户"
            },
            {
                "id": 23156,
                "user_id": 5601,
                "goods_id": 1033000,
                "goods_sn": "1033000",
                "product_id": 46,
                "goods_name": "母亲节礼物-舒适安睡组合",
                "goods_aka": "新生彩棉初衣礼盒（婴童）",
                "goods_weight": 1,
                "add_price": 199,
                "retail_price": 199,
                "number": 6,
                "goods_specifition_name_value": "1盒",
                "goods_specifition_ids": "26",
                "checked": 1,
                "list_pic_url": "http://yanxuan.nosdn.127.net/1f67b1970ee20fd572b7202da0ff705d.png",
                "freight_template_id": 19,
                "is_on_sale": 1,
                "add_time": "2023-11-09 22:49:44",
                "is_fast": 0,
                "is_delete": 0,
                "nickname": "微信用户"
            },
            {
                "id": 23155,
                "user_id": 5601,
                "goods_id": 1181000,
                "goods_sn": "Y100300",
                "product_id": 1,
                "goods_name": "母亲节礼物-舒适安睡组合",
                "goods_aka": "母亲节礼物-舒适安睡组合1",
                "goods_weight": 4,
                "add_price": 999,
                "retail_price": 999,
                "number": 1,
                "goods_specifition_name_value": "1套",
                "goods_specifition_ids": "46",
                "checked": 1,
                "list_pic_url": "http://yanxuan.nosdn.127.net/1f67b1970ee20fd572b7202da0ff705d.png",
                "freight_template_id": 19,
                "is_on_sale": 1,
                "add_time": "2023-11-09 22:40:55",
                "is_fast": 0,
                "is_delete": 0,
                "nickname": "微信用户"
            },
            {
                "id": 23154,
                "user_id": 0,
                "goods_id": 1065004,
                "goods_sn": "1065004",
                "product_id": 80,
                "goods_name": "悦己日式木质落地镜",
                "goods_aka": "悦己日式木质落地镜",
                "goods_weight": 1,
                "add_price": 199,
                "retail_price": 199,
                "number": 1,
                "goods_specifition_name_value": "1个",
                "goods_specifition_ids": "57",
                "checked": 0,
                "list_pic_url": "http://yanxuan.nosdn.127.net/05977cf923857db0c44b405bd87b096b.png",
                "freight_template_id": 15,
                "is_on_sale": 1,
                "add_time": "2023-11-09 22:22:35",
                "is_fast": 0,
                "is_delete": 0,
                "nickname": "已删除"
            },
            {
                "id": 23153,
                "user_id": 0,
                "goods_id": 1127052,
                "goods_sn": "1127052",
                "product_id": 183,
                "goods_name": "纯棉水洗色织格夏凉被",
                "goods_aka": "纯棉水洗色织格夏凉被",
                "goods_weight": 1,
                "add_price": 169,
                "retail_price": 169,
                "number": 2,
                "goods_specifition_name_value": "1条",
                "goods_specifition_ids": "17",
                "checked": 1,
                "list_pic_url": "http://yanxuan.nosdn.127.net/4f483526cfe3b953f403ae02049df5b9.png",
                "freight_template_id": 15,
                "is_on_sale": 1,
                "add_time": "2023-11-09 22:22:27",
                "is_fast": 0,
                "is_delete": 0,
                "nickname": "已删除"
            },
            {
                "id": 23152,
                "user_id": 0,
                "goods_id": 1086015,
                "goods_sn": "1086015",
                "product_id": 103,
                "goods_name": "求打赏",
                "goods_aka": "11",
                "goods_weight": 1,
                "add_price": 249,
                "retail_price": 249,
                "number": 2,
                "goods_specifition_name_value": "黑色",
                "goods_specifition_ids": "47",
                "checked": 1,
                "list_pic_url": "http://yanxuan.nosdn.127.net/d5c2ecfe0fb00cdd8b829975bab21a31.png",
                "freight_template_id": 15,
                "is_on_sale": 1,
                "add_time": "2023-11-09 22:21:49",
                "is_fast": 0,
                "is_delete": 0,
                "nickname": "已删除"
            }
        ]
    }
}